{
  "project_info": {
    "project_number": "45659338116",
    "project_id": "firebase-scratchy"
  },
  "client": [
    {
      "client_info": {
        "mobilesdk_app_id": "1:45659338116:android:e60aeff65cae8072",
        "android_client_info": {
          "package_name": "com.sourcey.materialloginexample"
        }
      },
      "oauth_client": [
        {
          "client_id": "45659338116-e153r7emmtpmv6m5on9a0su9cv0hdkvj.apps.googleusercontent.com",
          "client_type": 1,
          "android_info": {
            "package_name": "com.sourcey.materialloginexample",
            "certificate_hash": "d740e1b355ccab8a85d188e6312e639740f99d19"
          }
        },
        {
          "client_id": "45659338116-3638veeumbtp2sqvlbasq1f10smqdrd0.apps.googleusercontent.com",
          "client_type": 3
        }
      ],
      "api_key": [
        {
          "current_key": "AIzaSyBCpkAld7ru5w7RDW2rjUbNHpy7h4f4XCQ"
        }
      ],
      "services": {
        "analytics_service": {
          "status": 1
        },
        "appinvite_service": {
          "status": 1,
          "other_platform_oauth_client": []
        },
        "ads_service": {
          "status": 1
        }
      }
    }
  ],
  "configuration_version": "1"
}